008     PSP_DATA
015     CCP_1_LOW
015-016 CCP_1
016     CCP_1_HIGH
01B-01C CCP_2
01B     CCP_2_LOW
01C     CCP_2_HIGH
020     @SCRATCH
021     @SCRATCH
021     _RETURN_
022     @SCRATCH
023     @SCRATCH
024     @SCRATCH
025     @INTERRUPT_AREA
026     @INTERRUPT_AREA
027     @INTERRUPT_AREA
028     @INTERRUPT_AREA
029     @INTERRUPT_AREA
02A     @INTERRUPT_AREA
02B     @INTERRUPT_AREA
02C     @INTERRUPT_AREA
02D     @INTERRUPT_AREA
02E     x
02F     trata_rb.@SCRATCH
030     @delay_ms1.P1

0035  @delay_ms1
0042  trata_rb
0063  main
0063  @cinit

Project Files:
    F:\SEMB\SEMB 1\Trabalhos\TesteInt_RB\MPLab\main.c
    C:\PROGRA~2\PICC\devices\16f874.h

Compiler Settings:
    Processor:      PIC16F874
    Pointer Size:   8
    ADC Range:      0-255
    Opt Level:      9
    Short,Int,Long: 1,8,16

Output Files:
    Diagnostics: F:\SEMB\SEMB 1\Trabalhos\TesteInt_RB\MPLab\main.$$$
    Errors:      F:\SEMB\SEMB 1\Trabalhos\TesteInt_RB\MPLab\main.err
    INHX8:       main.HEX
    Symbols:     main.SYM
    List:        main.LST
    Debug/COFF:  main.cof
    Call Tree:   F:\SEMB\SEMB 1\Trabalhos\TesteInt_RB\MPLab\main.tre
    Statistics:  F:\SEMB\SEMB 1\Trabalhos\TesteInt_RB\MPLab\main.sta
